<?xml version="1.0" encoding="UTF-8"?>
<svg width="42.6" height="42.6" enable-background="new 0 0 595.3 841.9" version="1.1" viewBox="0 0 42.599999 42.599997" xmlns="http://www.w3.org/2000/svg">
 <g transform="translate(-276,-399.8)">
  <path d="m297.3 442.4c11.7 0 21.3-9.5 21.3-21.3 0-11.7-9.5-21.3-21.3-21.3-11.7 0-21.3 9.5-21.3 21.3s9.5 21.3 21.3 21.3z" fill="#637886"/>
  <path d="m310.8 415.7c-0.8 0-1.4 0.6-1.4 1.4 0 0.3 0.1 0.5 0.2 0.7-0.6 1.1-2.6 2.3-3.8 2.1-0.9-0.2-1-1.3-1-2.1 0-0.2 0.3-2.3 0.6-3.1 0.7 0 1.4-0.6 1.5-1.3 0.1-0.8-0.5-1.6-1.3-1.7s-1.6 0.5-1.7 1.3c-0.1 0.4 0.1 0.9 0.3 1.2-0.3 0.9-0.6 1.9-1.2 2.6-0.6 0.9-1.8 1.6-2.8 1.5s-1.5-0.9-1.9-2-0.3-3-0.3-4.1c0.5-0.3 0.9-0.9 0.9-1.5 0-1-0.8-1.7-1.7-1.7-1 0-1.7 0.8-1.7 1.7 0 0.7 0.4 1.4 1.1 1.6 0 1.2 0 3-0.3 4-0.4 1.1-0.9 1.9-1.9 2s-2.1-0.7-2.8-1.5c-0.6-0.8-0.9-1.7-1.2-2.6 0.3-0.3 0.4-0.7 0.3-1.2-0.1-0.8-0.9-1.4-1.7-1.3s-1.4 0.9-1.3 1.7 0.7 1.3 1.5 1.3c0.2 0.8 0.6 2.9 0.6 3.1 0 0.9-0.1 2-1 2.1-1.2 0.2-3.1-1-3.8-2.1 0.1-0.2 0.2-0.4 0.2-0.7 0-0.8-0.6-1.4-1.4-1.4s-1.4 0.6-1.4 1.4 0.6 1.4 1.4 1.4c1.4 1.6 4.2 8.4 4.3 10.7h9 0.2 0.1 0.1 0.2 8.6c0.2-2.5 2.1-7.7 4.7-10.7 0.8 0 1.4-0.6 1.4-1.4-0.2-0.8-0.9-1.4-1.6-1.4z" fill="#fff"/>
 </g>
</svg>
