<?xml version="1.0" encoding="UTF-8"?>
<svg version="1.1" viewBox="0 0 121.79249 121.3721" xmlns="http://www.w3.org/2000/svg">
 <path d="m38.136 47.273a26.71 26.71 0 0 1 4.19 -5.39l-13.73-15a47.34 47.34 0 0 0 -8.71 11.34z" style="fill:#64b349" data-name="Pfad 697"/>
 <path d="m71.766 36.633a26.23 26.23 0 0 1 5.75 3.61l13.76-15a46.73 46.73 0 0 0 -12.19 -7.61z" style="fill:#d09f27" data-name="Pfad 698"/>
 <path d="m103.31 41.163-18.24 9.09a26.25 26.25 0 0 1 1.82 6.45l20.29-1.92a46.17 46.17 0 0 0 -3.87 -13.62" style="fill:#c21c34" data-name="Pfad 699"/>
 <path d="m83.766 47.623 18.23-9.1a46.81 46.81 0 0 0 -8.52 -11.31l-13.76 15a26.21 26.21 0 0 1 4 5.38" style="fill:#259947" data-name="Pfad 700"/>
 <path d="m34.516 60.583q0-0.61 0-1.23l-20.3-1.82c-0.06 1-0.1 2-0.1 3a46.79 46.79 0 0 0 1.39 11.29l19.6-5.63a26.31 26.31 0 0 1 -0.62 -5.66" style="fill:#48773f" data-name="Pfad 701"/>
 <path class="cls-8" d="m81.196 77.263a26.67 26.67 0 0 1 -5 4.66l10.72 17.35a47.17 47.17 0 0 0 10.49 -9.75z" data-name="Pfad 702"/>
 <path d="m87.166 60.583a25.14 25.14 0 0 1 -0.6 5.6l19.61 5.6a46.72 46.72 0 0 0 1.37 -11.23c0-1 0-1.92-0.09-2.87l-20.3 1.92v1" style="fill:#e7432c" data-name="Pfad 703"/>
 <path d="m40.816 77.653-16.22 12.32a47.19 47.19 0 0 0 10.59 9.6l10.72-17.33a26.78 26.78 0 0 1 -5.09 -4.59" style="fill:#f49b29" data-name="Pfad 704"/>
 <path d="m34.836 56.423a26.14 26.14 0 0 1 2 -6.53l-18.29-9.11a46.28 46.28 0 0 0 -4 13.8z" style="fill:#037dbb" data-name="Pfad 705"/>
 <path d="m84.466 100.84-10.7-17.33a26.47 26.47 0 0 1 -6.24 2.54l3.78 20a46.29 46.29 0 0 0 13.16 -5.25" style="fill:#8f1939" data-name="Pfad 706"/>
 <path d="m85.766 69.023a26.25 26.25 0 0 1 -2.85 5.86l16.28 12.28a46.77 46.77 0 0 0 6.16 -12.52z" style="fill:#00add8" data-name="Pfad 707"/>
 <path d="m64.636 86.633a25.83 25.83 0 0 1 -6.87 0.15l-3.77 20a47 47 0 0 0 14.41 -0.12z" style="fill:#ec6d29" data-name="Pfad 708"/>
 <path d="m62.526 34.253a26.22 26.22 0 0 1 6.51 1.25l7.32-19a46.59 46.59 0 0 0 -13.83 -2.62z" style="fill:#e41c32" data-name="Pfad 709"/>
 <path d="m54.876 86.233a26.31 26.31 0 0 1 -6.46 -2.45l-10.72 17.34a46.18 46.18 0 0 0 13.41 5.13z" style="fill:#de1982" data-name="Pfad 710"/>
 <path d="m52.926 35.473a26.48 26.48 0 0 1 6.65 -1.19v-20.38a46.9 46.9 0 0 0 -14 2.55z" style="fill:#1e3766" data-name="Pfad 711"/>
 <path d="m39.026 75.313a26.27 26.27 0 0 1 -3.1 -6.23l-19.59 5.63a46.52 46.52 0 0 0 6.43 12.93z" style="fill:#cd8c2a" data-name="Pfad 712"/>
 <path d="m44.526 39.933a26.43 26.43 0 0 1 5.65 -3.42l-7.41-19a46.62 46.62 0 0 0 -12 7.36z" style="fill:#00558b" data-name="Pfad 713"/>
 <path d="m22.116 107.14a60.56 60.56 0 0 0 78 0l-4-4a54.93 54.93 0 0 1 -70 0z" style="fill:#0e6cb1" data-name="Pfad 734"/>
 <path d="m103.57 95.663 4 4a60.57 60.57 0 0 0 0 -78l-4 4a54.92 54.92 0 0 1 0 70z" style="fill:#0e6cb1" data-name="Pfad 735"/>
 <path d="m61.116 5.6426a54.9 54.9 0 0 1 35 12.59l4-4a60.55 60.55 0 0 0 -78 0l4 4a54.9 54.9 0 0 1 35 -12.59z" style="fill:#0e6cb1" data-name="Pfad 736"/>
 <path d="m14.766 20.323a62.5 62.5 0 0 0 0 80.69l4.31-4.23a56.54 56.54 0 0 1 0 -72.15z" style="fill:#e96423" data-name="Pfad 737"/>
 <path d="m38.136 47.273a26.71 26.71 0 0 1 4.19 -5.39l-13.73-15a47.34 47.34 0 0 0 -8.71 11.34z" style="fill:#64b349" data-name="Pfad 697"/>
 <path d="m71.766 36.633a26.23 26.23 0 0 1 5.75 3.61l13.76-15a46.73 46.73 0 0 0 -12.19 -7.61z" style="fill:#d09f27" data-name="Pfad 698"/>
 <path d="m103.31 41.163-18.24 9.09a26.25 26.25 0 0 1 1.82 6.45l20.29-1.92a46.17 46.17 0 0 0 -3.87 -13.62" style="fill:#c21c34" data-name="Pfad 699"/>
 <path d="m83.766 47.623 18.23-9.1a46.81 46.81 0 0 0 -8.52 -11.31l-13.76 15a26.21 26.21 0 0 1 4 5.38" style="fill:#259947" data-name="Pfad 700"/>
 <path d="m34.516 60.583q0-0.61 0-1.23l-20.3-1.82c-0.06 1-0.1 2-0.1 3a46.79 46.79 0 0 0 1.39 11.29l19.6-5.63a26.31 26.31 0 0 1 -0.62 -5.66" style="fill:#48773f" data-name="Pfad 701"/>
 <path fill="#f9b61b" d="m81.196 77.263a26.67 26.67 0 0 1 -5 4.66l10.72 17.35a47.17 47.17 0 0 0 10.49 -9.75z" data-name="Pfad 702"/>
 <path d="m87.166 60.583a25.14 25.14 0 0 1 -0.6 5.6l19.61 5.6a46.72 46.72 0 0 0 1.37 -11.23c0-1 0-1.92-0.09-2.87l-20.3 1.92v1" style="fill:#e7432c" data-name="Pfad 703"/>
 <path d="m40.816 77.653-16.22 12.32a47.19 47.19 0 0 0 10.59 9.6l10.72-17.33a26.78 26.78 0 0 1 -5.09 -4.59" style="fill:#f49b29" data-name="Pfad 704"/>
 <path d="m34.836 56.423a26.14 26.14 0 0 1 2 -6.53l-18.29-9.11a46.28 46.28 0 0 0 -4 13.8z" style="fill:#037dbb" data-name="Pfad 705"/>
 <path d="m84.466 100.84-10.7-17.33a26.47 26.47 0 0 1 -6.24 2.54l3.78 20a46.29 46.29 0 0 0 13.16 -5.25" style="fill:#8f1939" data-name="Pfad 706"/>
 <path d="m85.766 69.023a26.25 26.25 0 0 1 -2.85 5.86l16.28 12.28a46.77 46.77 0 0 0 6.16 -12.52z" style="fill:#00add8" data-name="Pfad 707"/>
 <path d="m64.636 86.633a25.83 25.83 0 0 1 -6.87 0.15l-3.77 20a47 47 0 0 0 14.41 -0.12z" style="fill:#ec6d29" data-name="Pfad 708"/>
 <path d="m62.526 34.253a26.22 26.22 0 0 1 6.51 1.25l7.32-19a46.59 46.59 0 0 0 -13.83 -2.62z" style="fill:#e41c32" data-name="Pfad 709"/>
 <path d="m54.876 86.233a26.31 26.31 0 0 1 -6.46 -2.45l-10.72 17.34a46.18 46.18 0 0 0 13.41 5.13z" style="fill:#de1982" data-name="Pfad 710"/>
 <path d="m52.926 35.473a26.48 26.48 0 0 1 6.65 -1.19v-20.38a46.9 46.9 0 0 0 -14 2.55z" style="fill:#1e3766" data-name="Pfad 711"/>
 <path d="m39.026 75.313a26.27 26.27 0 0 1 -3.1 -6.23l-19.59 5.63a46.52 46.52 0 0 0 6.43 12.93z" style="fill:#cd8c2a" data-name="Pfad 712"/>
 <path d="m44.526 39.933a26.43 26.43 0 0 1 5.65 -3.42l-7.41-19a46.62 46.62 0 0 0 -12 7.36z" style="fill:#00558b" data-name="Pfad 713"/>
 <path d="m22.116 107.14a60.56 60.56 0 0 0 78 0l-4-4a54.93 54.93 0 0 1 -70 0z" style="fill:#0e6cb1" data-name="Pfad 734"/>
 <path d="m103.57 95.663 4 4a60.57 60.57 0 0 0 0 -78l-4 4a54.92 54.92 0 0 1 0 70z" style="fill:#0e6cb1" data-name="Pfad 735"/>
 <path d="m61.116 5.6426a54.9 54.9 0 0 1 35 12.59l4-4a60.55 60.55 0 0 0 -78 0l4 4a54.9 54.9 0 0 1 35 -12.59z" style="fill:#0e6cb1" data-name="Pfad 736"/>
 <path d="m14.766 20.323a62.5 62.5 0 0 0 0 80.69l4.31-4.23a56.54 56.54 0 0 1 0 -72.15z" style="fill:#e96423" data-name="Pfad 737"/>
</svg>
